// Jest Snapshot v1, https://goo.gl/fbAQLP

exports[`mode.token() caption all bold content 1`] = `
Array [
  Object {
    "end": 1,
    "start": 0,
    "string": "	",
    "style": null,
  },
  Object {
    "end": 8,
    "start": 1,
    "string": "caption",
    "style": Array [
      "lettering-subject",
      "line-cm-caption",
      "line-cm-lettering",
    ],
  },
  Object {
    "end": 10,
    "start": 8,
    "string": ": ",
    "style": null,
  },
  Object {
    "end": 22,
    "start": 10,
    "string": "**good one**",
    "style": Array [
      "lettering-bold",
      "lettering-content",
    ],
  },
]
`;

exports[`mode.token() caption closed modifier but no colon 1`] = `
Array [
  Object {
    "end": 1,
    "start": 0,
    "string": "	",
    "style": null,
  },
  Object {
    "end": 8,
    "start": 1,
    "string": "caption",
    "style": Array [
      "lettering-subject",
      "line-cm-caption",
      "line-cm-lettering",
    ],
  },
  Object {
    "end": 9,
    "start": 8,
    "string": " ",
    "style": null,
  },
  Object {
    "end": 10,
    "start": 9,
    "string": "(",
    "style": null,
  },
  Object {
    "end": 13,
    "start": 10,
    "string": "mom",
    "style": Array [
      "lettering-modifier",
    ],
  },
  Object {
    "end": 14,
    "start": 13,
    "string": ")",
    "style": null,
  },
]
`;

exports[`mode.token() caption full 1`] = `
Array [
  Object {
    "end": 1,
    "start": 0,
    "string": "	",
    "style": null,
  },
  Object {
    "end": 8,
    "start": 1,
    "string": "caption",
    "style": Array [
      "lettering-subject",
      "line-cm-caption",
      "line-cm-lettering",
    ],
  },
  Object {
    "end": 9,
    "start": 8,
    "string": " ",
    "style": null,
  },
  Object {
    "end": 10,
    "start": 9,
    "string": "(",
    "style": null,
  },
  Object {
    "end": 14,
    "start": 10,
    "string": "bill",
    "style": Array [
      "lettering-modifier",
    ],
  },
  Object {
    "end": 15,
    "start": 14,
    "string": ")",
    "style": null,
  },
  Object {
    "end": 17,
    "start": 15,
    "string": ": ",
    "style": null,
  },
  Object {
    "end": 29,
    "start": 17,
    "string": "it went well",
    "style": Array [
      "lettering-content",
    ],
  },
]
`;

exports[`mode.token() caption multiple bolds 1`] = `
Array [
  Object {
    "end": 1,
    "start": 0,
    "string": "	",
    "style": null,
  },
  Object {
    "end": 8,
    "start": 1,
    "string": "caption",
    "style": Array [
      "lettering-subject",
      "line-cm-caption",
      "line-cm-lettering",
    ],
  },
  Object {
    "end": 10,
    "start": 8,
    "string": ": ",
    "style": null,
  },
  Object {
    "end": 17,
    "start": 10,
    "string": "it did ",
    "style": Array [
      "lettering-content",
    ],
  },
  Object {
    "end": 24,
    "start": 17,
    "string": "**not**",
    "style": Array [
      "lettering-bold",
      "lettering-content",
    ],
  },
  Object {
    "end": 33,
    "start": 24,
    "string": " work at ",
    "style": Array [
      "lettering-content",
    ],
  },
  Object {
    "end": 40,
    "start": 33,
    "string": "**all**",
    "style": Array [
      "lettering-bold",
      "lettering-content",
    ],
  },
  Object {
    "end": 41,
    "start": 40,
    "string": "!",
    "style": Array [
      "lettering-content",
    ],
  },
]
`;

exports[`mode.token() caption newly opened modifier 1`] = `
Array [
  Object {
    "end": 1,
    "start": 0,
    "string": "	",
    "style": null,
  },
  Object {
    "end": 8,
    "start": 1,
    "string": "caption",
    "style": Array [
      "lettering-subject",
      "line-cm-caption",
      "line-cm-lettering",
    ],
  },
  Object {
    "end": 9,
    "start": 8,
    "string": " ",
    "style": null,
  },
  Object {
    "end": 10,
    "start": 9,
    "string": "(",
    "style": null,
  },
]
`;

exports[`mode.token() caption no colon 1`] = `
Array [
  Object {
    "end": 1,
    "start": 0,
    "string": "	",
    "style": null,
  },
  Object {
    "end": 8,
    "start": 1,
    "string": "caption",
    "style": Array [
      "lettering-subject",
      "line-cm-caption",
      "line-cm-lettering",
    ],
  },
]
`;

exports[`mode.token() caption no content 1`] = `
Array [
  Object {
    "end": 1,
    "start": 0,
    "string": "	",
    "style": null,
  },
  Object {
    "end": 8,
    "start": 1,
    "string": "caption",
    "style": Array [
      "lettering-subject",
      "line-cm-caption",
      "line-cm-lettering",
    ],
  },
  Object {
    "end": 9,
    "start": 8,
    "string": ":",
    "style": null,
  },
]
`;

exports[`mode.token() caption no modifier 1`] = `
Array [
  Object {
    "end": 1,
    "start": 0,
    "string": "	",
    "style": null,
  },
  Object {
    "end": 8,
    "start": 1,
    "string": "caption",
    "style": Array [
      "lettering-subject",
      "line-cm-caption",
      "line-cm-lettering",
    ],
  },
  Object {
    "end": 10,
    "start": 8,
    "string": ": ",
    "style": null,
  },
  Object {
    "end": 22,
    "start": 10,
    "string": "it went well",
    "style": Array [
      "lettering-content",
    ],
  },
]
`;

exports[`mode.token() caption some bold content 1`] = `
Array [
  Object {
    "end": 1,
    "start": 0,
    "string": "	",
    "style": null,
  },
  Object {
    "end": 8,
    "start": 1,
    "string": "caption",
    "style": Array [
      "lettering-subject",
      "line-cm-caption",
      "line-cm-lettering",
    ],
  },
  Object {
    "end": 10,
    "start": 8,
    "string": ": ",
    "style": null,
  },
  Object {
    "end": 13,
    "start": 10,
    "string": "it ",
    "style": Array [
      "lettering-content",
    ],
  },
  Object {
    "end": 24,
    "start": 13,
    "string": "**did not**",
    "style": Array [
      "lettering-bold",
      "lettering-content",
    ],
  },
  Object {
    "end": 29,
    "start": 24,
    "string": " work",
    "style": Array [
      "lettering-content",
    ],
  },
]
`;

exports[`mode.token() caption unclosed modifier 1`] = `
Array [
  Object {
    "end": 1,
    "start": 0,
    "string": "	",
    "style": null,
  },
  Object {
    "end": 8,
    "start": 1,
    "string": "caption",
    "style": Array [
      "lettering-subject",
      "line-cm-caption",
      "line-cm-lettering",
    ],
  },
  Object {
    "end": 9,
    "start": 8,
    "string": " ",
    "style": null,
  },
  Object {
    "end": 10,
    "start": 9,
    "string": "(",
    "style": null,
  },
  Object {
    "end": 13,
    "start": 10,
    "string": "mom",
    "style": Array [
      "lettering-modifier",
    ],
  },
]
`;

exports[`mode.token() dialogue all bold content 1`] = `
Array [
  Object {
    "end": 1,
    "start": 0,
    "string": "	",
    "style": null,
  },
  Object {
    "end": 5,
    "start": 1,
    "string": "bill",
    "style": Array [
      "lettering-subject",
      "line-cm-dialogue",
      "line-cm-lettering",
    ],
  },
  Object {
    "end": 7,
    "start": 5,
    "string": ": ",
    "style": null,
  },
  Object {
    "end": 19,
    "start": 7,
    "string": "**good one**",
    "style": Array [
      "lettering-bold",
      "lettering-content",
    ],
  },
]
`;

exports[`mode.token() dialogue closed modifier but no colon 1`] = `
Array [
  Object {
    "end": 1,
    "start": 0,
    "string": "	",
    "style": null,
  },
  Object {
    "end": 5,
    "start": 1,
    "string": "bill",
    "style": Array [
      "lettering-subject",
      "line-cm-dialogue",
      "line-cm-lettering",
    ],
  },
  Object {
    "end": 6,
    "start": 5,
    "string": " ",
    "style": null,
  },
  Object {
    "end": 7,
    "start": 6,
    "string": "(",
    "style": null,
  },
  Object {
    "end": 11,
    "start": 7,
    "string": "yell",
    "style": Array [
      "lettering-modifier",
    ],
  },
  Object {
    "end": 12,
    "start": 11,
    "string": ")",
    "style": null,
  },
]
`;

exports[`mode.token() dialogue full 1`] = `
Array [
  Object {
    "end": 1,
    "start": 0,
    "string": "	",
    "style": null,
  },
  Object {
    "end": 5,
    "start": 1,
    "string": "bill",
    "style": Array [
      "lettering-subject",
      "line-cm-dialogue",
      "line-cm-lettering",
    ],
  },
  Object {
    "end": 6,
    "start": 5,
    "string": " ",
    "style": null,
  },
  Object {
    "end": 7,
    "start": 6,
    "string": "(",
    "style": null,
  },
  Object {
    "end": 14,
    "start": 7,
    "string": "whisper",
    "style": Array [
      "lettering-modifier",
    ],
  },
  Object {
    "end": 15,
    "start": 14,
    "string": ")",
    "style": null,
  },
  Object {
    "end": 17,
    "start": 15,
    "string": ": ",
    "style": null,
  },
  Object {
    "end": 29,
    "start": 17,
    "string": "it went well",
    "style": Array [
      "lettering-content",
    ],
  },
]
`;

exports[`mode.token() dialogue multiple bolds 1`] = `
Array [
  Object {
    "end": 1,
    "start": 0,
    "string": "	",
    "style": null,
  },
  Object {
    "end": 5,
    "start": 1,
    "string": "bill",
    "style": Array [
      "lettering-subject",
      "line-cm-dialogue",
      "line-cm-lettering",
    ],
  },
  Object {
    "end": 7,
    "start": 5,
    "string": ": ",
    "style": null,
  },
  Object {
    "end": 14,
    "start": 7,
    "string": "it did ",
    "style": Array [
      "lettering-content",
    ],
  },
  Object {
    "end": 21,
    "start": 14,
    "string": "**not**",
    "style": Array [
      "lettering-bold",
      "lettering-content",
    ],
  },
  Object {
    "end": 30,
    "start": 21,
    "string": " work at ",
    "style": Array [
      "lettering-content",
    ],
  },
  Object {
    "end": 37,
    "start": 30,
    "string": "**all**",
    "style": Array [
      "lettering-bold",
      "lettering-content",
    ],
  },
  Object {
    "end": 38,
    "start": 37,
    "string": "!",
    "style": Array [
      "lettering-content",
    ],
  },
]
`;

exports[`mode.token() dialogue newly opened modifier 1`] = `
Array [
  Object {
    "end": 1,
    "start": 0,
    "string": "	",
    "style": null,
  },
  Object {
    "end": 5,
    "start": 1,
    "string": "bill",
    "style": Array [
      "lettering-subject",
      "line-cm-dialogue",
      "line-cm-lettering",
    ],
  },
  Object {
    "end": 6,
    "start": 5,
    "string": " ",
    "style": null,
  },
  Object {
    "end": 7,
    "start": 6,
    "string": "(",
    "style": null,
  },
]
`;

exports[`mode.token() dialogue no colon 1`] = `
Array [
  Object {
    "end": 1,
    "start": 0,
    "string": "	",
    "style": null,
  },
  Object {
    "end": 5,
    "start": 1,
    "string": "bill",
    "style": Array [
      "lettering-subject",
      "line-cm-dialogue",
      "line-cm-lettering",
    ],
  },
]
`;

exports[`mode.token() dialogue no content 1`] = `
Array [
  Object {
    "end": 1,
    "start": 0,
    "string": "	",
    "style": null,
  },
  Object {
    "end": 5,
    "start": 1,
    "string": "bill",
    "style": Array [
      "lettering-subject",
      "line-cm-dialogue",
      "line-cm-lettering",
    ],
  },
  Object {
    "end": 6,
    "start": 5,
    "string": ":",
    "style": null,
  },
]
`;

exports[`mode.token() dialogue no modifier 1`] = `
Array [
  Object {
    "end": 1,
    "start": 0,
    "string": "	",
    "style": null,
  },
  Object {
    "end": 5,
    "start": 1,
    "string": "bill",
    "style": Array [
      "lettering-subject",
      "line-cm-dialogue",
      "line-cm-lettering",
    ],
  },
  Object {
    "end": 7,
    "start": 5,
    "string": ": ",
    "style": null,
  },
  Object {
    "end": 19,
    "start": 7,
    "string": "it went well",
    "style": Array [
      "lettering-content",
    ],
  },
]
`;

exports[`mode.token() dialogue no subject 1`] = `
Array [
  Object {
    "end": 1,
    "start": 0,
    "string": "	",
    "style": null,
  },
  Object {
    "end": 12,
    "start": 1,
    "string": "(yell): bam",
    "style": null,
  },
]
`;

exports[`mode.token() dialogue some bold content 1`] = `
Array [
  Object {
    "end": 1,
    "start": 0,
    "string": "	",
    "style": null,
  },
  Object {
    "end": 5,
    "start": 1,
    "string": "bill",
    "style": Array [
      "lettering-subject",
      "line-cm-dialogue",
      "line-cm-lettering",
    ],
  },
  Object {
    "end": 7,
    "start": 5,
    "string": ": ",
    "style": null,
  },
  Object {
    "end": 10,
    "start": 7,
    "string": "it ",
    "style": Array [
      "lettering-content",
    ],
  },
  Object {
    "end": 21,
    "start": 10,
    "string": "**did not**",
    "style": Array [
      "lettering-bold",
      "lettering-content",
    ],
  },
  Object {
    "end": 26,
    "start": 21,
    "string": " work",
    "style": Array [
      "lettering-content",
    ],
  },
]
`;

exports[`mode.token() dialogue stars in content (issue 77) 3 stars 1`] = `
Array [
  Object {
    "end": 1,
    "start": 0,
    "string": "	",
    "style": null,
  },
  Object {
    "end": 4,
    "start": 1,
    "string": "BOB",
    "style": Array [
      "lettering-subject",
      "line-cm-dialogue",
      "line-cm-lettering",
    ],
  },
  Object {
    "end": 6,
    "start": 4,
    "string": ": ",
    "style": null,
  },
  Object {
    "end": 9,
    "start": 6,
    "string": "***",
    "style": Array [
      "lettering-content",
    ],
  },
]
`;

exports[`mode.token() dialogue stars in content (issue 77) 4 stars 1`] = `
Array [
  Object {
    "end": 1,
    "start": 0,
    "string": "	",
    "style": null,
  },
  Object {
    "end": 4,
    "start": 1,
    "string": "BOB",
    "style": Array [
      "lettering-subject",
      "line-cm-dialogue",
      "line-cm-lettering",
    ],
  },
  Object {
    "end": 6,
    "start": 4,
    "string": ": ",
    "style": null,
  },
  Object {
    "end": 10,
    "start": 6,
    "string": "****",
    "style": Array [
      "lettering-bold",
      "lettering-content",
    ],
  },
]
`;

exports[`mode.token() dialogue stars in content (issue 77) almost closed bold 1`] = `
Array [
  Object {
    "end": 1,
    "start": 0,
    "string": "	",
    "style": null,
  },
  Object {
    "end": 4,
    "start": 1,
    "string": "BOB",
    "style": Array [
      "lettering-subject",
      "line-cm-dialogue",
      "line-cm-lettering",
    ],
  },
  Object {
    "end": 6,
    "start": 4,
    "string": ": ",
    "style": null,
  },
  Object {
    "end": 13,
    "start": 6,
    "string": "**word*",
    "style": Array [
      "lettering-content",
    ],
  },
]
`;

exports[`mode.token() dialogue stars in content (issue 77) almost opened bold 1`] = `
Array [
  Object {
    "end": 1,
    "start": 0,
    "string": "	",
    "style": null,
  },
  Object {
    "end": 4,
    "start": 1,
    "string": "BOB",
    "style": Array [
      "lettering-subject",
      "line-cm-dialogue",
      "line-cm-lettering",
    ],
  },
  Object {
    "end": 6,
    "start": 4,
    "string": ": ",
    "style": null,
  },
  Object {
    "end": 11,
    "start": 6,
    "string": "*word",
    "style": Array [
      "lettering-content",
    ],
  },
  Object {
    "end": 13,
    "start": 11,
    "string": "**",
    "style": Array [
      "lettering-content",
    ],
  },
]
`;

exports[`mode.token() dialogue stars in content (issue 77) double star 1`] = `
Array [
  Object {
    "end": 1,
    "start": 0,
    "string": "	",
    "style": null,
  },
  Object {
    "end": 4,
    "start": 1,
    "string": "BOB",
    "style": Array [
      "lettering-subject",
      "line-cm-dialogue",
      "line-cm-lettering",
    ],
  },
  Object {
    "end": 6,
    "start": 4,
    "string": ": ",
    "style": null,
  },
  Object {
    "end": 8,
    "start": 6,
    "string": "**",
    "style": Array [
      "lettering-content",
    ],
  },
]
`;

exports[`mode.token() dialogue stars in content (issue 77) multiple stars 1`] = `
Array [
  Object {
    "end": 1,
    "start": 0,
    "string": "	",
    "style": null,
  },
  Object {
    "end": 4,
    "start": 1,
    "string": "BOB",
    "style": Array [
      "lettering-subject",
      "line-cm-dialogue",
      "line-cm-lettering",
    ],
  },
  Object {
    "end": 6,
    "start": 4,
    "string": ": ",
    "style": null,
  },
  Object {
    "end": 8,
    "start": 6,
    "string": "* ",
    "style": Array [
      "lettering-content",
    ],
  },
  Object {
    "end": 10,
    "start": 8,
    "string": "* ",
    "style": Array [
      "lettering-content",
    ],
  },
  Object {
    "end": 11,
    "start": 10,
    "string": "*",
    "style": Array [
      "lettering-content",
    ],
  },
]
`;

exports[`mode.token() dialogue stars in content (issue 77) single star 1`] = `
Array [
  Object {
    "end": 1,
    "start": 0,
    "string": "	",
    "style": null,
  },
  Object {
    "end": 4,
    "start": 1,
    "string": "BOB",
    "style": Array [
      "lettering-subject",
      "line-cm-dialogue",
      "line-cm-lettering",
    ],
  },
  Object {
    "end": 6,
    "start": 4,
    "string": ": ",
    "style": null,
  },
  Object {
    "end": 7,
    "start": 6,
    "string": "*",
    "style": Array [
      "lettering-content",
    ],
  },
]
`;

exports[`mode.token() dialogue stars in content (issue 77) unclosed bold 1`] = `
Array [
  Object {
    "end": 1,
    "start": 0,
    "string": "	",
    "style": null,
  },
  Object {
    "end": 4,
    "start": 1,
    "string": "BOB",
    "style": Array [
      "lettering-subject",
      "line-cm-dialogue",
      "line-cm-lettering",
    ],
  },
  Object {
    "end": 6,
    "start": 4,
    "string": ": ",
    "style": null,
  },
  Object {
    "end": 12,
    "start": 6,
    "string": "**word",
    "style": Array [
      "lettering-content",
    ],
  },
]
`;

exports[`mode.token() dialogue stars in content (issue 77) unopened bold 1`] = `
Array [
  Object {
    "end": 1,
    "start": 0,
    "string": "	",
    "style": null,
  },
  Object {
    "end": 4,
    "start": 1,
    "string": "BOB",
    "style": Array [
      "lettering-subject",
      "line-cm-dialogue",
      "line-cm-lettering",
    ],
  },
  Object {
    "end": 6,
    "start": 4,
    "string": ": ",
    "style": null,
  },
  Object {
    "end": 10,
    "start": 6,
    "string": "word",
    "style": Array [
      "lettering-content",
    ],
  },
  Object {
    "end": 12,
    "start": 10,
    "string": "**",
    "style": Array [
      "lettering-content",
    ],
  },
]
`;

exports[`mode.token() dialogue stars in content (issue 77) word wrapped in single stars 1`] = `
Array [
  Object {
    "end": 1,
    "start": 0,
    "string": "	",
    "style": null,
  },
  Object {
    "end": 4,
    "start": 1,
    "string": "BOB",
    "style": Array [
      "lettering-subject",
      "line-cm-dialogue",
      "line-cm-lettering",
    ],
  },
  Object {
    "end": 6,
    "start": 4,
    "string": ": ",
    "style": null,
  },
  Object {
    "end": 11,
    "start": 6,
    "string": "*word",
    "style": Array [
      "lettering-content",
    ],
  },
  Object {
    "end": 12,
    "start": 11,
    "string": "*",
    "style": Array [
      "lettering-content",
    ],
  },
]
`;

exports[`mode.token() dialogue unclosed modifier 1`] = `
Array [
  Object {
    "end": 1,
    "start": 0,
    "string": "	",
    "style": null,
  },
  Object {
    "end": 5,
    "start": 1,
    "string": "bill",
    "style": Array [
      "lettering-subject",
      "line-cm-dialogue",
      "line-cm-lettering",
    ],
  },
  Object {
    "end": 6,
    "start": 5,
    "string": " ",
    "style": null,
  },
  Object {
    "end": 7,
    "start": 6,
    "string": "(",
    "style": null,
  },
  Object {
    "end": 11,
    "start": 7,
    "string": "yell",
    "style": Array [
      "lettering-modifier",
    ],
  },
]
`;

exports[`mode.token() dialogue unclosed modifier with content 1`] = `
Array [
  Object {
    "end": 1,
    "start": 0,
    "string": "	",
    "style": null,
  },
  Object {
    "end": 5,
    "start": 1,
    "string": "bill",
    "style": Array [
      "lettering-subject",
      "line-cm-dialogue",
      "line-cm-lettering",
    ],
  },
  Object {
    "end": 6,
    "start": 5,
    "string": " ",
    "style": null,
  },
  Object {
    "end": 7,
    "start": 6,
    "string": "(",
    "style": null,
  },
  Object {
    "end": 11,
    "start": 7,
    "string": "yell",
    "style": Array [
      "lettering-modifier",
    ],
  },
  Object {
    "end": 13,
    "start": 11,
    "string": ": ",
    "style": null,
  },
  Object {
    "end": 17,
    "start": 13,
    "string": "ahhh",
    "style": Array [
      "lettering-content",
    ],
  },
]
`;

exports[`mode.token() dialogue unopened modifier 1`] = `
Array [
  Object {
    "end": 1,
    "start": 0,
    "string": "	",
    "style": null,
  },
  Object {
    "end": 11,
    "start": 1,
    "string": "bill yell)",
    "style": Array [
      "lettering-subject",
      "line-cm-dialogue",
      "line-cm-lettering",
    ],
  },
]
`;

exports[`mode.token() dialogue unopened modifier with content 1`] = `
Array [
  Object {
    "end": 1,
    "start": 0,
    "string": "	",
    "style": null,
  },
  Object {
    "end": 11,
    "start": 1,
    "string": "bill yell)",
    "style": Array [
      "lettering-subject",
      "line-cm-dialogue",
      "line-cm-lettering",
    ],
  },
  Object {
    "end": 13,
    "start": 11,
    "string": ": ",
    "style": null,
  },
  Object {
    "end": 17,
    "start": 13,
    "string": "ahhh",
    "style": Array [
      "lettering-content",
    ],
  },
]
`;

exports[`mode.token() metadata after a page has been seen 1`] = `
Array [
  Object {
    "end": 11,
    "start": 0,
    "string": "name: value",
    "style": Array [
      "paragraph",
    ],
  },
]
`;

exports[`mode.token() metadata full 1`] = `
Array [
  Object {
    "end": 11,
    "start": 0,
    "string": "name: value",
    "style": Array [
      "metadata",
    ],
  },
]
`;

exports[`mode.token() metadata no colon 1`] = `
Array [
  Object {
    "end": 4,
    "start": 0,
    "string": "name",
    "style": Array [
      "paragraph",
    ],
  },
]
`;

exports[`mode.token() metadata no space after colon 1`] = `
Array [
  Object {
    "end": 10,
    "start": 0,
    "string": "name:value",
    "style": Array [
      "metadata",
    ],
  },
]
`;

exports[`mode.token() metadata no value 1`] = `
Array [
  Object {
    "end": 5,
    "start": 0,
    "string": "name:",
    "style": Array [
      "paragraph",
    ],
  },
]
`;

exports[`mode.token() page double digit partial 1`] = `
Array [
  Object {
    "end": 8,
    "start": 0,
    "string": "page 10-",
    "style": Array [
      "page",
    ],
  },
]
`;

exports[`mode.token() page double digit range 1`] = `
Array [
  Object {
    "end": 10,
    "start": 0,
    "string": "page 10-11",
    "style": Array [
      "page",
    ],
  },
]
`;

exports[`mode.token() page mixed digit range 1`] = `
Array [
  Object {
    "end": 9,
    "start": 0,
    "string": "page 9-10",
    "style": Array [
      "page",
    ],
  },
]
`;

exports[`mode.token() page multi digit page 1`] = `
Array [
  Object {
    "end": 7,
    "start": 0,
    "string": "page 10",
    "style": Array [
      "page",
    ],
  },
]
`;

exports[`mode.token() page single digit page 1`] = `
Array [
  Object {
    "end": 6,
    "start": 0,
    "string": "page 5",
    "style": Array [
      "page",
    ],
  },
]
`;

exports[`mode.token() page single digit partial 1`] = `
Array [
  Object {
    "end": 7,
    "start": 0,
    "string": "page 9-",
    "style": Array [
      "page",
    ],
  },
]
`;

exports[`mode.token() page single digit range 1`] = `
Array [
  Object {
    "end": 8,
    "start": 0,
    "string": "page 1-2",
    "style": Array [
      "page",
    ],
  },
]
`;

exports[`mode.token() page without suffix 1`] = `
Array [
  Object {
    "end": 4,
    "start": 0,
    "string": "page",
    "style": Array [
      "paragraph",
    ],
  },
]
`;

exports[`mode.token() pages double digit partial 1`] = `
Array [
  Object {
    "end": 9,
    "start": 0,
    "string": "pages 10-",
    "style": Array [
      "page",
    ],
  },
]
`;

exports[`mode.token() pages double digit range 1`] = `
Array [
  Object {
    "end": 11,
    "start": 0,
    "string": "pages 10-11",
    "style": Array [
      "page",
    ],
  },
]
`;

exports[`mode.token() pages mixed digit range 1`] = `
Array [
  Object {
    "end": 10,
    "start": 0,
    "string": "pages 9-10",
    "style": Array [
      "page",
    ],
  },
]
`;

exports[`mode.token() pages multi digit pages 1`] = `
Array [
  Object {
    "end": 8,
    "start": 0,
    "string": "pages 10",
    "style": Array [
      "page",
    ],
  },
]
`;

exports[`mode.token() pages single digit pages 1`] = `
Array [
  Object {
    "end": 7,
    "start": 0,
    "string": "pages 5",
    "style": Array [
      "page",
    ],
  },
]
`;

exports[`mode.token() pages single digit partial 1`] = `
Array [
  Object {
    "end": 8,
    "start": 0,
    "string": "pages 9-",
    "style": Array [
      "page",
    ],
  },
]
`;

exports[`mode.token() pages single digit range 1`] = `
Array [
  Object {
    "end": 9,
    "start": 0,
    "string": "pages 1-2",
    "style": Array [
      "page",
    ],
  },
]
`;

exports[`mode.token() pages without suffix 1`] = `
Array [
  Object {
    "end": 5,
    "start": 0,
    "string": "pages",
    "style": Array [
      "paragraph",
    ],
  },
]
`;

exports[`mode.token() panel multi digit panel 1`] = `
Array [
  Object {
    "end": 8,
    "start": 0,
    "string": "panel 10",
    "style": Array [
      "panel",
    ],
  },
]
`;

exports[`mode.token() panel single digit panel 1`] = `
Array [
  Object {
    "end": 7,
    "start": 0,
    "string": "panel 2",
    "style": Array [
      "panel",
    ],
  },
]
`;

exports[`mode.token() panel without suffix 1`] = `
Array [
  Object {
    "end": 5,
    "start": 0,
    "string": "panel",
    "style": Array [
      "paragraph",
    ],
  },
]
`;

exports[`mode.token() panel without suffix number 1`] = `
Array [
  Object {
    "end": 6,
    "start": 0,
    "string": "panel ",
    "style": Array [
      "paragraph",
    ],
  },
]
`;

exports[`mode.token() paragraph * with big gap then h 1`] = `
Array [
  Object {
    "end": 19,
    "start": 0,
    "string": "*------------------",
    "style": Array [
      "paragraph",
    ],
  },
  Object {
    "end": 20,
    "start": 19,
    "string": "h",
    "style": Array [
      "paragraph",
    ],
  },
]
`;

exports[`mode.token() paragraph ? after url 1`] = `
Array [
  Object {
    "end": 14,
    "start": 0,
    "string": "It will be at ",
    "style": Array [
      "paragraph",
    ],
  },
  Object {
    "end": 34,
    "start": 14,
    "string": "https://example.com?",
    "style": Array [
      "paragraph",
      "paragraph-url",
    ],
  },
]
`;

exports[`mode.token() paragraph Words with * and h 1`] = `
Array [
  Object {
    "end": 2,
    "start": 0,
    "string": "*t",
    "style": Array [
      "paragraph",
    ],
  },
  Object {
    "end": 5,
    "start": 2,
    "string": "his",
    "style": Array [
      "paragraph",
    ],
  },
  Object {
    "end": 11,
    "start": 5,
    "string": "* was ",
    "style": Array [
      "paragraph",
    ],
  },
  Object {
    "end": 15,
    "start": 11,
    "string": "hat ",
    "style": Array [
      "paragraph",
    ],
  },
  Object {
    "end": 21,
    "start": 15,
    "string": "*happy",
    "style": Array [
      "paragraph",
    ],
  },
  Object {
    "end": 23,
    "start": 21,
    "string": "* ",
    "style": Array [
      "paragraph",
    ],
  },
  Object {
    "end": 27,
    "start": 23,
    "string": "hut ",
    "style": Array [
      "paragraph",
    ],
  },
  Object {
    "end": 30,
    "start": 27,
    "string": "hot",
    "style": Array [
      "paragraph",
    ],
  },
  Object {
    "end": 32,
    "start": 30,
    "string": "h ",
    "style": Array [
      "paragraph",
    ],
  },
  Object {
    "end": 36,
    "start": 32,
    "string": "*bla",
    "style": Array [
      "paragraph",
    ],
  },
  Object {
    "end": 38,
    "start": 36,
    "string": "h*",
    "style": Array [
      "paragraph",
    ],
  },
]
`;

exports[`mode.token() paragraph bold after url 1`] = `
Array [
  Object {
    "end": 19,
    "start": 0,
    "string": "https://example.com",
    "style": Array [
      "paragraph",
      "paragraph-url",
    ],
  },
  Object {
    "end": 20,
    "start": 19,
    "string": " ",
    "style": Array [
      "paragraph",
    ],
  },
  Object {
    "end": 36,
    "start": 20,
    "string": "**Do not visit**",
    "style": Array [
      "paragraph",
      "paragraph-bold",
    ],
  },
]
`;

exports[`mode.token() paragraph bold before url 1`] = `
Array [
  Object {
    "end": 16,
    "start": 0,
    "string": "**Do not visit**",
    "style": Array [
      "paragraph",
      "paragraph-bold",
    ],
  },
  Object {
    "end": 17,
    "start": 16,
    "string": " ",
    "style": Array [
      "paragraph",
    ],
  },
  Object {
    "end": 36,
    "start": 17,
    "string": "https://example.com",
    "style": Array [
      "paragraph",
      "paragraph-url",
    ],
  },
]
`;

exports[`mode.token() paragraph bold text 1`] = `
Array [
  Object {
    "end": 18,
    "start": 0,
    "string": "**just some bold**",
    "style": Array [
      "paragraph",
      "paragraph-bold",
    ],
  },
]
`;

exports[`mode.token() paragraph bold text around regular text 1`] = `
Array [
  Object {
    "end": 13,
    "start": 0,
    "string": "**bold here**",
    "style": Array [
      "paragraph",
      "paragraph-bold",
    ],
  },
  Object {
    "end": 22,
    "start": 13,
    "string": " regular ",
    "style": Array [
      "paragraph",
    ],
  },
  Object {
    "end": 27,
    "start": 22,
    "string": "here ",
    "style": Array [
      "paragraph",
    ],
  },
  Object {
    "end": 40,
    "start": 27,
    "string": "**bold here**",
    "style": Array [
      "paragraph",
      "paragraph-bold",
    ],
  },
]
`;

exports[`mode.token() paragraph dot after url 1`] = `
Array [
  Object {
    "end": 14,
    "start": 0,
    "string": "It will be at ",
    "style": Array [
      "paragraph",
    ],
  },
  Object {
    "end": 33,
    "start": 14,
    "string": "https://example.com",
    "style": Array [
      "paragraph",
      "paragraph-url",
    ],
  },
  Object {
    "end": 34,
    "start": 33,
    "string": ".",
    "style": Array [
      "paragraph",
    ],
  },
]
`;

exports[`mode.token() paragraph just an http url 1`] = `
Array [
  Object {
    "end": 18,
    "start": 0,
    "string": "http://example.com",
    "style": Array [
      "paragraph",
      "paragraph-url",
    ],
  },
]
`;

exports[`mode.token() paragraph just an https url 1`] = `
Array [
  Object {
    "end": 19,
    "start": 0,
    "string": "https://example.com",
    "style": Array [
      "paragraph",
      "paragraph-url",
    ],
  },
]
`;

exports[`mode.token() paragraph multi urls 1`] = `
Array [
  Object {
    "end": 14,
    "start": 0,
    "string": "It will be at ",
    "style": Array [
      "paragraph",
    ],
  },
  Object {
    "end": 33,
    "start": 14,
    "string": "https://example.com",
    "style": Array [
      "paragraph",
      "paragraph-url",
    ],
  },
  Object {
    "end": 40,
    "start": 33,
    "string": " or at ",
    "style": Array [
      "paragraph",
    ],
  },
  Object {
    "end": 56,
    "start": 40,
    "string": "https://blah.com",
    "style": Array [
      "paragraph",
      "paragraph-url",
    ],
  },
  Object {
    "end": 70,
    "start": 56,
    "string": " I am not sure",
    "style": Array [
      "paragraph",
    ],
  },
]
`;

exports[`mode.token() paragraph regular text 1`] = `
Array [
  Object {
    "end": 1,
    "start": 0,
    "string": "T",
    "style": Array [
      "paragraph",
    ],
  },
  Object {
    "end": 26,
    "start": 1,
    "string": "he first rays of sunrise ",
    "style": Array [
      "paragraph",
    ],
  },
  Object {
    "end": 31,
    "start": 26,
    "string": "hit t",
    "style": Array [
      "paragraph",
    ],
  },
  Object {
    "end": 34,
    "start": 31,
    "string": "he ",
    "style": Array [
      "paragraph",
    ],
  },
  Object {
    "end": 63,
    "start": 34,
    "string": "house. A car waits out front.",
    "style": Array [
      "paragraph",
    ],
  },
]
`;

exports[`mode.token() paragraph regular text around bold text 1`] = `
Array [
  Object {
    "end": 8,
    "start": 0,
    "string": "regular ",
    "style": Array [
      "paragraph",
    ],
  },
  Object {
    "end": 13,
    "start": 8,
    "string": "here ",
    "style": Array [
      "paragraph",
    ],
  },
  Object {
    "end": 26,
    "start": 13,
    "string": "**bold here**",
    "style": Array [
      "paragraph",
      "paragraph-bold",
    ],
  },
  Object {
    "end": 40,
    "start": 26,
    "string": " more regular ",
    "style": Array [
      "paragraph",
    ],
  },
  Object {
    "end": 44,
    "start": 40,
    "string": "here",
    "style": Array [
      "paragraph",
    ],
  },
]
`;

exports[`mode.token() paragraph url after text 1`] = `
Array [
  Object {
    "end": 14,
    "start": 0,
    "string": "It will be at ",
    "style": Array [
      "paragraph",
    ],
  },
  Object {
    "end": 33,
    "start": 14,
    "string": "https://example.com",
    "style": Array [
      "paragraph",
      "paragraph-url",
    ],
  },
]
`;

exports[`mode.token() paragraph url before text 1`] = `
Array [
  Object {
    "end": 19,
    "start": 0,
    "string": "https://example.com",
    "style": Array [
      "paragraph",
      "paragraph-url",
    ],
  },
  Object {
    "end": 28,
    "start": 19,
    "string": " to see t",
    "style": Array [
      "paragraph",
    ],
  },
  Object {
    "end": 37,
    "start": 28,
    "string": "he cover.",
    "style": Array [
      "paragraph",
    ],
  },
]
`;

exports[`mode.token() paragraph url ending with # 1`] = `
Array [
  Object {
    "end": 14,
    "start": 0,
    "string": "It will be at ",
    "style": Array [
      "paragraph",
    ],
  },
  Object {
    "end": 34,
    "start": 14,
    "string": "https://example.com#",
    "style": Array [
      "paragraph",
      "paragraph-url",
    ],
  },
]
`;

exports[`mode.token() paragraph url ending with / 1`] = `
Array [
  Object {
    "end": 14,
    "start": 0,
    "string": "It will be at ",
    "style": Array [
      "paragraph",
    ],
  },
  Object {
    "end": 34,
    "start": 14,
    "string": "https://example.com/",
    "style": Array [
      "paragraph",
      "paragraph-url",
    ],
  },
]
`;

exports[`mode.token() paragraph url ending with = 1`] = `
Array [
  Object {
    "end": 14,
    "start": 0,
    "string": "It will be at ",
    "style": Array [
      "paragraph",
    ],
  },
  Object {
    "end": 39,
    "start": 14,
    "string": "https://example.com?name=",
    "style": Array [
      "paragraph",
      "paragraph-url",
    ],
  },
]
`;

exports[`mode.token() paragraph url in bold 1`] = `
Array [
  Object {
    "end": 15,
    "start": 0,
    "string": "**do not visit ",
    "style": Array [
      "paragraph",
      "paragraph-bold",
    ],
  },
  Object {
    "end": 34,
    "start": 15,
    "string": "https://example.com",
    "style": Array [
      "paragraph",
      "paragraph-bold",
      "paragraph-url",
    ],
  },
  Object {
    "end": 41,
    "start": 34,
    "string": " that**",
    "style": Array [
      "paragraph",
      "paragraph-bold",
    ],
  },
]
`;

exports[`mode.token() paragraph url in some text 1`] = `
Array [
  Object {
    "end": 6,
    "start": 0,
    "string": "Go to ",
    "style": Array [
      "paragraph",
    ],
  },
  Object {
    "end": 25,
    "start": 6,
    "string": "https://example.com",
    "style": Array [
      "paragraph",
      "paragraph-url",
    ],
  },
  Object {
    "end": 34,
    "start": 25,
    "string": " to see t",
    "style": Array [
      "paragraph",
    ],
  },
  Object {
    "end": 43,
    "start": 34,
    "string": "he cover.",
    "style": Array [
      "paragraph",
    ],
  },
]
`;

exports[`mode.token() sfx allows bold content 1`] = `
Array [
  Object {
    "end": 1,
    "start": 0,
    "string": "	",
    "style": null,
  },
  Object {
    "end": 4,
    "start": 1,
    "string": "sfx",
    "style": Array [
      "lettering-subject",
      "line-cm-lettering",
      "line-cm-sfx",
    ],
  },
  Object {
    "end": 6,
    "start": 4,
    "string": ": ",
    "style": null,
  },
  Object {
    "end": 10,
    "start": 6,
    "string": "bam ",
    "style": Array [
      "lettering-content",
    ],
  },
  Object {
    "end": 17,
    "start": 10,
    "string": "**bam**",
    "style": Array [
      "lettering-bold",
      "lettering-content",
    ],
  },
  Object {
    "end": 21,
    "start": 17,
    "string": " bam",
    "style": Array [
      "lettering-content",
    ],
  },
]
`;

exports[`mode.token() sfx closed modifier but no colon 1`] = `
Array [
  Object {
    "end": 1,
    "start": 0,
    "string": "	",
    "style": null,
  },
  Object {
    "end": 4,
    "start": 1,
    "string": "sfx",
    "style": Array [
      "lettering-subject",
      "line-cm-lettering",
      "line-cm-sfx",
    ],
  },
  Object {
    "end": 5,
    "start": 4,
    "string": " ",
    "style": null,
  },
  Object {
    "end": 6,
    "start": 5,
    "string": "(",
    "style": null,
  },
  Object {
    "end": 9,
    "start": 6,
    "string": "gun",
    "style": Array [
      "lettering-modifier",
    ],
  },
  Object {
    "end": 10,
    "start": 9,
    "string": ")",
    "style": null,
  },
]
`;

exports[`mode.token() sfx full 1`] = `
Array [
  Object {
    "end": 1,
    "start": 0,
    "string": "	",
    "style": null,
  },
  Object {
    "end": 4,
    "start": 1,
    "string": "sfx",
    "style": Array [
      "lettering-subject",
      "line-cm-lettering",
      "line-cm-sfx",
    ],
  },
  Object {
    "end": 5,
    "start": 4,
    "string": " ",
    "style": null,
  },
  Object {
    "end": 6,
    "start": 5,
    "string": "(",
    "style": null,
  },
  Object {
    "end": 9,
    "start": 6,
    "string": "gun",
    "style": Array [
      "lettering-modifier",
    ],
  },
  Object {
    "end": 10,
    "start": 9,
    "string": ")",
    "style": null,
  },
  Object {
    "end": 12,
    "start": 10,
    "string": ": ",
    "style": null,
  },
  Object {
    "end": 16,
    "start": 12,
    "string": "blam",
    "style": Array [
      "lettering-content",
    ],
  },
]
`;

exports[`mode.token() sfx newly opened modifier 1`] = `
Array [
  Object {
    "end": 1,
    "start": 0,
    "string": "	",
    "style": null,
  },
  Object {
    "end": 4,
    "start": 1,
    "string": "sfx",
    "style": Array [
      "lettering-subject",
      "line-cm-lettering",
      "line-cm-sfx",
    ],
  },
  Object {
    "end": 5,
    "start": 4,
    "string": " ",
    "style": null,
  },
  Object {
    "end": 6,
    "start": 5,
    "string": "(",
    "style": null,
  },
]
`;

exports[`mode.token() sfx no colon 1`] = `
Array [
  Object {
    "end": 1,
    "start": 0,
    "string": "	",
    "style": null,
  },
  Object {
    "end": 4,
    "start": 1,
    "string": "sfx",
    "style": Array [
      "lettering-subject",
      "line-cm-lettering",
      "line-cm-sfx",
    ],
  },
]
`;

exports[`mode.token() sfx no content 1`] = `
Array [
  Object {
    "end": 1,
    "start": 0,
    "string": "	",
    "style": null,
  },
  Object {
    "end": 4,
    "start": 1,
    "string": "sfx",
    "style": Array [
      "lettering-subject",
      "line-cm-lettering",
      "line-cm-sfx",
    ],
  },
  Object {
    "end": 5,
    "start": 4,
    "string": ":",
    "style": null,
  },
]
`;

exports[`mode.token() sfx no modifier 1`] = `
Array [
  Object {
    "end": 1,
    "start": 0,
    "string": "	",
    "style": null,
  },
  Object {
    "end": 4,
    "start": 1,
    "string": "sfx",
    "style": Array [
      "lettering-subject",
      "line-cm-lettering",
      "line-cm-sfx",
    ],
  },
  Object {
    "end": 6,
    "start": 4,
    "string": ": ",
    "style": null,
  },
  Object {
    "end": 10,
    "start": 6,
    "string": "blam",
    "style": Array [
      "lettering-content",
    ],
  },
]
`;

exports[`mode.token() sfx unclosed modifier 1`] = `
Array [
  Object {
    "end": 1,
    "start": 0,
    "string": "	",
    "style": null,
  },
  Object {
    "end": 4,
    "start": 1,
    "string": "sfx",
    "style": Array [
      "lettering-subject",
      "line-cm-lettering",
      "line-cm-sfx",
    ],
  },
  Object {
    "end": 5,
    "start": 4,
    "string": " ",
    "style": null,
  },
  Object {
    "end": 6,
    "start": 5,
    "string": "(",
    "style": null,
  },
  Object {
    "end": 9,
    "start": 6,
    "string": "gun",
    "style": Array [
      "lettering-modifier",
    ],
  },
]
`;
