// Jest Snapshot v1, https://goo.gl/fbAQLP

exports[`parse aggregate parsePreSpreadLines empty 1`] = `Array []`;

exports[`parse aggregate parsePreSpreadLines metadata, blank lines and paragraphs 1`] = `
Array [
  Metadata {
    "id": "",
    "lineNumber": 0,
    "name": "Title",
    "type": "metadata",
    "value": "The Comic",
  },
  BlankLine {
    "id": "",
    "lineNumber": 0,
    "type": "blank",
  },
  Paragraph {
    "content": Array [
      TextChunk {
        "content": "This is a comic about some people. It is my first comic.",
        "type": "text",
      },
    ],
    "id": "",
    "lineNumber": 0,
    "type": "paragraph",
  },
  BlankLine {
    "id": "",
    "lineNumber": 0,
    "type": "blank",
  },
  Metadata {
    "id": "",
    "lineNumber": 0,
    "name": "Issue",
    "type": "metadata",
    "value": "5",
  },
  BlankLine {
    "id": "",
    "lineNumber": 0,
    "type": "blank",
  },
]
`;

exports[`parse aggregate parseSpreadLines basic 1`] = `
Spread {
  "captionCount": 0,
  "captionWordCount": 0,
  "children": Array [
    Panel {
      "captionCount": 0,
      "captionWordCount": 0,
      "children": Array [
        Paragraph {
          "content": Array [
            TextChunk {
              "content": "Establihsing shot of Manhattan. There is a helicopter hovering above a skyscraper.",
              "type": "text",
            },
          ],
          "id": "",
          "lineNumber": 0,
          "type": "paragraph",
        },
      ],
      "description": "Establihsing shot of Manhattan. There is a helicopter hovering above a skyscraper.",
      "dialogueCount": 0,
      "dialogueWordCount": 0,
      "id": "",
      "lineNumber": 0,
      "number": 1,
      "sfxCount": 0,
      "speakers": Array [],
      "type": "panel",
    },
  ],
  "dialogueCount": 0,
  "dialogueWordCount": 0,
  "id": "",
  "lineNumber": 0,
  "pageCount": 1,
  "panelCount": 1,
  "sfxCount": 0,
  "speakers": Array [],
  "startPage": 1,
  "type": "spread",
}
`;

exports[`parse aggregate parseSpreadLines multiple letterings 1`] = `
Spread {
  "captionCount": 5,
  "captionWordCount": 24,
  "children": Array [
    Panel {
      "captionCount": 0,
      "captionWordCount": 0,
      "children": Array [
        Paragraph {
          "content": Array [
            TextChunk {
              "content": "Establihsing shot of NYC. There is a helicopter hovering above a skyscraper.",
              "type": "text",
            },
          ],
          "id": "",
          "lineNumber": 0,
          "type": "paragraph",
        },
        BlankLine {
          "id": "",
          "lineNumber": 0,
          "type": "blank",
        },
      ],
      "description": "Establihsing shot of NYC. There is a helicopter hovering above a skyscraper.",
      "dialogueCount": 0,
      "dialogueWordCount": 0,
      "id": "",
      "lineNumber": 0,
      "number": 1,
      "sfxCount": 0,
      "speakers": Array [],
      "type": "panel",
    },
    Panel {
      "captionCount": 2,
      "captionWordCount": 11,
      "children": Array [
        Paragraph {
          "content": Array [
            TextChunk {
              "content": "The character walks down the street. Hands stuffed in pockets.",
              "type": "text",
            },
          ],
          "id": "",
          "lineNumber": 0,
          "type": "paragraph",
        },
        Caption {
          "content": Array [
            TextChunk {
              "content": "They're coming after me. I can feel it.",
              "type": "text",
            },
          ],
          "id": "",
          "lineNumber": 0,
          "modifier": "",
          "number": 1,
          "type": "caption",
          "wordCount": 8,
        },
        Caption {
          "content": Array [
            TextChunk {
              "content": "Am I paranoid?",
              "type": "text",
            },
          ],
          "id": "",
          "lineNumber": 0,
          "modifier": "",
          "number": 2,
          "type": "caption",
          "wordCount": 3,
        },
        BlankLine {
          "id": "",
          "lineNumber": 0,
          "type": "blank",
        },
      ],
      "description": "The character walks down the street. Hands stuffed in pockets.",
      "dialogueCount": 0,
      "dialogueWordCount": 0,
      "id": "",
      "lineNumber": 0,
      "number": 2,
      "sfxCount": 0,
      "speakers": Array [],
      "type": "panel",
    },
    Panel {
      "captionCount": 1,
      "captionWordCount": 6,
      "children": Array [
        Paragraph {
          "content": Array [
            TextChunk {
              "content": "Character looks behind him, thinking he is being followed.",
              "type": "text",
            },
          ],
          "id": "",
          "lineNumber": 0,
          "type": "paragraph",
        },
        Caption {
          "content": Array [
            TextChunk {
              "content": "I like to call it prepared.",
              "type": "text",
            },
          ],
          "id": "",
          "lineNumber": 0,
          "modifier": "",
          "number": 3,
          "type": "caption",
          "wordCount": 6,
        },
        BlankLine {
          "id": "",
          "lineNumber": 0,
          "type": "blank",
        },
      ],
      "description": "Character looks behind him, thinking he is being followed.",
      "dialogueCount": 0,
      "dialogueWordCount": 0,
      "id": "",
      "lineNumber": 0,
      "number": 3,
      "sfxCount": 0,
      "speakers": Array [],
      "type": "panel",
    },
    Panel {
      "captionCount": 1,
      "captionWordCount": 4,
      "children": Array [
        Paragraph {
          "content": Array [
            TextChunk {
              "content": "Character running frantically.",
              "type": "text",
            },
          ],
          "id": "",
          "lineNumber": 0,
          "type": "paragraph",
        },
        Dialogue {
          "content": Array [
            TextChunk {
              "content": "Help! Help!",
              "type": "text",
            },
          ],
          "id": "",
          "lineNumber": 0,
          "modifier": "",
          "number": 4,
          "speaker": "CHARACTER",
          "type": "dialogue",
          "wordCount": 2,
        },
        Caption {
          "content": Array [
            TextChunk {
              "content": "Nobody cares, not here.",
              "type": "text",
            },
          ],
          "id": "",
          "lineNumber": 0,
          "modifier": "",
          "number": 5,
          "type": "caption",
          "wordCount": 4,
        },
      ],
      "description": "Character running frantically.",
      "dialogueCount": 1,
      "dialogueWordCount": 2,
      "id": "",
      "lineNumber": 0,
      "number": 4,
      "sfxCount": 0,
      "speakers": Array [
        "CHARACTER",
      ],
      "type": "panel",
    },
    Panel {
      "captionCount": 1,
      "captionWordCount": 3,
      "children": Array [
        Paragraph {
          "content": Array [
            TextChunk {
              "content": "Character is shot in the back.",
              "type": "text",
            },
          ],
          "id": "",
          "lineNumber": 0,
          "type": "paragraph",
        },
        Sfx {
          "content": Array [
            TextChunk {
              "content": "BLAM!",
              "type": "text",
            },
          ],
          "id": "",
          "lineNumber": 0,
          "modifier": "",
          "number": 6,
          "type": "sfx",
        },
        Caption {
          "content": Array [
            TextChunk {
              "content": "Bout damn time.",
              "type": "text",
            },
          ],
          "id": "",
          "lineNumber": 0,
          "modifier": "",
          "number": 7,
          "type": "caption",
          "wordCount": 3,
        },
      ],
      "description": "Character is shot in the back.",
      "dialogueCount": 0,
      "dialogueWordCount": 0,
      "id": "",
      "lineNumber": 0,
      "number": 5,
      "sfxCount": 1,
      "speakers": Array [],
      "type": "panel",
    },
  ],
  "dialogueCount": 1,
  "dialogueWordCount": 2,
  "id": "",
  "lineNumber": 0,
  "pageCount": 1,
  "panelCount": 5,
  "sfxCount": 1,
  "speakers": Array [
    "CHARACTER",
  ],
  "startPage": 1,
  "type": "spread",
}
`;

exports[`parse aggregate parseSpreadLines multiple panels 1`] = `
Spread {
  "captionCount": 0,
  "captionWordCount": 0,
  "children": Array [
    Panel {
      "captionCount": 0,
      "captionWordCount": 0,
      "children": Array [
        Paragraph {
          "content": Array [
            TextChunk {
              "content": "Establihsing shot of Manhattan. There is a helicopter hovering above a skyscraper.",
              "type": "text",
            },
          ],
          "id": "",
          "lineNumber": 0,
          "type": "paragraph",
        },
        BlankLine {
          "id": "",
          "lineNumber": 0,
          "type": "blank",
        },
      ],
      "description": "Establihsing shot of Manhattan. There is a helicopter hovering above a skyscraper.",
      "dialogueCount": 0,
      "dialogueWordCount": 0,
      "id": "",
      "lineNumber": 0,
      "number": 1,
      "sfxCount": 0,
      "speakers": Array [],
      "type": "panel",
    },
    Panel {
      "captionCount": 0,
      "captionWordCount": 0,
      "children": Array [
        Paragraph {
          "content": Array [
            TextChunk {
              "content": "The character walks down the street. Hands stuffed in pockets.",
              "type": "text",
            },
          ],
          "id": "",
          "lineNumber": 0,
          "type": "paragraph",
        },
        BlankLine {
          "id": "",
          "lineNumber": 0,
          "type": "blank",
        },
      ],
      "description": "The character walks down the street. Hands stuffed in pockets.",
      "dialogueCount": 0,
      "dialogueWordCount": 0,
      "id": "",
      "lineNumber": 0,
      "number": 2,
      "sfxCount": 0,
      "speakers": Array [],
      "type": "panel",
    },
    Panel {
      "captionCount": 0,
      "captionWordCount": 0,
      "children": Array [
        Paragraph {
          "content": Array [
            TextChunk {
              "content": "Character looks behind him, thinking he is being followed.",
              "type": "text",
            },
          ],
          "id": "",
          "lineNumber": 0,
          "type": "paragraph",
        },
        BlankLine {
          "id": "",
          "lineNumber": 0,
          "type": "blank",
        },
      ],
      "description": "Character looks behind him, thinking he is being followed.",
      "dialogueCount": 0,
      "dialogueWordCount": 0,
      "id": "",
      "lineNumber": 0,
      "number": 3,
      "sfxCount": 0,
      "speakers": Array [],
      "type": "panel",
    },
  ],
  "dialogueCount": 0,
  "dialogueWordCount": 0,
  "id": "",
  "lineNumber": 0,
  "pageCount": 1,
  "panelCount": 3,
  "sfxCount": 0,
  "speakers": Array [],
  "startPage": 1,
  "type": "spread",
}
`;
